eda
…
ℹ Use `spec()` to retrieve the full column specification for this data.
ℹ Specify the column types or set `show_col_types = FALSE` to quiet this message.

データ整形

# metadataから、Lifetime = 1のオブジェクトのみを抽出
df.meta.1 = df.meta.new |>
        dplyr::filter(Lifetime == 1) |>
        mutate(Order = 1:102) |>
        relocate(Order, .after = Label) |>
        print()

# A tibble: 102 × 11
      ID Drug  Pathology   Run Stain Frame…¹ Label Order Cente…² Cente…³ Lifet…⁴
   <dbl> <chr> <chr>     <dbl> <chr> <chr>   <dbl> <int>   <dbl>   <dbl>   <dbl>
 1 12081 ATG   Thrombos…     1 Ly6G  0000        1     1   466.     225.       1
 2 12081 ATG   Thrombos…     1 Ly6G  0000        2     2   492.     257.       1
 3 12081 ATG   Thrombos…     1 Ly6G  0000        3     3    65.0    271.       1
 4 12081 ATG   Thrombos…     1 Ly6G  0000        4     4   107.     306.       1
 5 12081 ATG   Thrombos…     1 Ly6G  0000        5     5   341.     394.       1
 6 12081 ATG   Thrombos…     1 Ly6G  0001        6     6   231.     358.       1
 7 12081 ATG   Thrombos…     1 Ly6G  0004        7     7    89.2    295.       1
 8 12081 ATG   Thrombos…     3 Ly6G  0000        1     8    76.8    131.       1
 9 12081 ATG   Thrombos…     3 Ly6G  0000        2     9   155.     198.       1
10 12081 ATG   Thrombos…     3 Ly6G  0000        3    10   162.     215.       1
# … with 92 more rows, and abbreviated variable names ¹​FrameNumber, ²​Center_X,
#   ³​Center_Y, ⁴​Lifetime

# metadataからPathology列を抽出し、df.normalized.2と結合する。
df.patho.2.raw = bind_cols(df.meta.1$Pathology, df.normalized.2) |>
        rename(Pathology = "...1") |>
        print()

New names:
• `` -> `...1`

# A tibble: 102 × 48
   Pathology  Area_Mean Bound…¹ Compa…² Convex…³ Eccen…⁴ Equiv…⁵ Exten…⁶ FormF…⁷
   <chr>          <dbl>   <dbl>   <dbl>    <dbl>   <dbl>   <dbl>   <dbl>   <dbl>
 1 Thrombosis    0.0651 -0.263   -0.628 -6.03e-2 -0.921    0.200  1.17     0.809
 2 Thrombosis    1.11    0.410   -0.118  9.01e-1  0.855    1.24   1.03    -0.101
 3 Thrombosis   -1.10   -0.925   -0.746 -1.04e+0  0.516   -1.37   0.432    1.06 
 4 Thrombosis    1.29    1.34     0.761  1.14e+0  1.59     1.39  -1.27    -1.18 
 5 Thrombosis   -0.590  -0.513    0.153 -5.50e-1  1.21    -0.599 -0.0808  -0.478
 6 Thrombosis   -1.12   -0.897   -0.547 -1.04e+0  0.772   -1.40  -0.0928   0.644
 7 Thrombosis   -1.12   -0.712    0.509 -9.10e-1  0.0756  -1.41  -1.70    -0.833
 8 Thrombosis    0.539   0.0106  -0.497  3.32e-1  0.288    0.699  1.27     0.543
 9 Thrombosis   -0.337  -0.237    1.98   4.82e-6  1.33    -0.273 -0.582   -2.13 
10 Thrombosis   -0.300  -0.256    0.111 -2.43e-1 -0.267   -0.225 -0.325   -0.420
# … with 92 more rows, 39 more variables: MajorAxisLength_Mean <dbl>,
#   MaxFeretDiameter_Mean <dbl>, MaximumRadius_Mean <dbl>,
#   MeanRadius_Mean <dbl>, MedianRadius_Mean <dbl>,
#   MinFeretDiameter_Mean <dbl>, MinorAxisLength_Mean <dbl>,
#   Perimeter_Mean <dbl>, Solidity_Mean <dbl>, Area_Std <dbl>,
#   BoundingBoxArea_Std <dbl>, Compactness_Std <dbl>, ConvexArea_Std <dbl>,
#   Eccentricity_Std <dbl>, EquivalentDiameter_Std <dbl>, Extent_Std <dbl>, …
…
